Processor/tb_EXAMPLE.vcd
$version Generated by VerilatedVcd $end
$timescale 1ps $end
 $scope module TOP $end
  $scope module CORE_PKG $end
   $var wire 32 [" DECODE_WIDTH [31:0] $end
   $var wire 32 [" RENAME_WIDTH [31:0] $end
   $var wire 32 \" NUM_PREGS [31:0] $end
   $var wire 32 ]" NUM_AREGS [31:0] $end
   $var wire 32 Z" RS_ENTRIES [31:0] $end
   $var wire 32 Z" NUM_FUS [31:0] $end
   $var wire 32 [" FRONTEND_WIDTH [31:0] $end
   $var wire 32 Y" ROB_ENTRIES [31:0] $end
   $var wire 32 [" RETIRE_WIDTH [31:0] $end
   $var wire 32 [" FIRE_WIDTH [31:0] $end
   $var wire 2 ^" FU_TYPE[0] [1:0] $end
   $var wire 2 ^" FU_TYPE[1] [1:0] $end
   $var wire 2 ^" FU_TYPE[2] [1:0] $end
   $var wire 2 _" FU_TYPE[3] [1:0] $end
   $var wire 32 Y" LDQ_ENTRIES [31:0] $end
   $var wire 32 Y" SDQ_ENTRIES [31:0] $end
   $var wire 32 Y" NUM_MSHR_ENTS [31:0] $end
   $var wire 32 `" CACHE_BLOCK_SIZE [31:0] $end
   $var wire 32 \" NUM_CACHE_ENTS [31:0] $end
   $var wire 32 a" NUM_IDX_BITS [31:0] $end
   $var wire 32 [" BLOCK_OFFSET_BITS [31:0] $end
   $var wire 32 b" NUM_TAG_BITS [31:0] $end
  $upscope $end
  $scope module tb_dispatch $end
   $var wire 32 !" CLK_PERIOD [31:0] $end
   $var real 64 "" DUTY_CYCLE $end
   $var wire 1 |! clk $end
   $var wire 1 }! rst $end
   $var wire 32 ~! cycle_count [31:0] $end
   $var wire 32 $" pass_count [31:0] $end
   $var wire 32 $" fail_count [31:0] $end
   $var wire 1 %" stall $end
   $var wire 1 &" flush $end
   $var wire 1 '" rename_vld[0] $end
   $var wire 1 (" rename_vld[1] $end
   $var wire 127 )" rename_disp_pkt[0] [126:0] $end
   $var wire 127 -" rename_disp_pkt[1] [126:0] $end
   $var wire 1 # instr_queue_full[0] $end
   $var wire 1 $ instr_queue_full[1] $end
   $var wire 4 1" disp_ldq_idx [3:0] $end
   $var wire 4 2" disp_sdq_idx [3:0] $end
   $var wire 1 3" ldq_full $end
   $var wire 1 4" sdq_full $end
   $var wire 1 5" disp_vld $end
   $var wire 1 6" disp_is_store $end
   $var wire 32 7" disp_store_data [31:0] $end
   $var wire 5 8" disp_sdq_marker [4:0] $end
   $var wire 4 9" disp_rob_idx [3:0] $end
   $var wire 128 % disp_pkt[0] [127:0] $end
   $var wire 128 ) disp_pkt[1] [127:0] $end
   $var wire 128 - disp_pkt[2] [127:0] $end
   $var wire 128 1 disp_pkt[3] [127:0] $end
   $var wire 1 5 disp_valid[0] $end
   $var wire 1 6 disp_valid[1] $end
   $var wire 1 7 disp_valid[2] $end
   $var wire 1 8 disp_valid[3] $end
   $var wire 16 9 dependency_mask[0] [15:0] $end
   $var wire 16 : dependency_mask[1] [15:0] $end
   $var wire 16 ; dependency_mask[2] [15:0] $end
   $var wire 16 < dependency_mask[3] [15:0] $end
   $var wire 2 :" rs_entry_idx[0] [1:0] $end
   $var wire 2 ;" rs_entry_idx[1] [1:0] $end
   $var wire 2 <" rs_entry_idx[2] [1:0] $end
   $var wire 2 =" rs_entry_idx[3] [1:0] $end
   $var wire 1 >" rs_full[0] $end
   $var wire 1 ?" rs_full[1] $end
   $var wire 1 @" rs_full[2] $end
   $var wire 1 A" rs_full[3] $end
   $var wire 1 = rob_fire_valid[0] $end
   $var wire 1 > rob_fire_valid[1] $end
   $var wire 5 ? rob_dst_reg[0] [4:0] $end
   $var wire 5 @ rob_dst_reg[1] [4:0] $end
   $var wire 1 A rob_wb_en[0] $end
   $var wire 1 B rob_wb_en[1] $end
   $var wire 4 B" rob_entry_idx[0] [3:0] $end
   $var wire 4 C" rob_entry_idx[1] [3:0] $end
   $var wire 1 D" rob_full[0] $end
   $var wire 1 E" rob_full[1] $end
   $scope module dut $end
    $var wire 1 |! clk_i $end
    $var wire 1 }! rst_i $end
    $var wire 1 %" stall_i $end
    $var wire 1 &" flush_i $end
    $var wire 1 '" rename_vld_i[0] $end
    $var wire 1 (" rename_vld_i[1] $end
    $var wire 127 )" rename_pkt_i[0] [126:0] $end
    $var wire 127 -" rename_pkt_i[1] [126:0] $end
    $var wire 1 # instr_queue_full_o[0] $end
    $var wire 1 $ instr_queue_full_o[1] $end
    $var wire 128 % disp_pkt_o[0] [127:0] $end
    $var wire 128 ) disp_pkt_o[1] [127:0] $end
    $var wire 128 - disp_pkt_o[2] [127:0] $end
    $var wire 128 1 disp_pkt_o[3] [127:0] $end
    $var wire 1 5 disp_valid_o[0] $end
    $var wire 1 6 disp_valid_o[1] $end
    $var wire 1 7 disp_valid_o[2] $end
    $var wire 1 8 disp_valid_o[3] $end
    $var wire 16 9 dependency_mask_o[0] [15:0] $end
    $var wire 16 : dependency_mask_o[1] [15:0] $end
    $var wire 16 ; dependency_mask_o[2] [15:0] $end
    $var wire 16 < dependency_mask_o[3] [15:0] $end
    $var wire 2 :" rs_entry_idx_i[0] [1:0] $end
    $var wire 2 ;" rs_entry_idx_i[1] [1:0] $end
    $var wire 2 <" rs_entry_idx_i[2] [1:0] $end
    $var wire 2 =" rs_entry_idx_i[3] [1:0] $end
    $var wire 1 >" rs_full_i[0] $end
    $var wire 1 ?" rs_full_i[1] $end
    $var wire 1 @" rs_full_i[2] $end
    $var wire 1 A" rs_full_i[3] $end
    $var wire 1 = rob_fire_valid_o[0] $end
    $var wire 1 > rob_fire_valid_o[1] $end
    $var wire 5 ? rob_dst_reg_o[0] [4:0] $end
    $var wire 5 @ rob_dst_reg_o[1] [4:0] $end
    $var wire 1 A rob_wb_en_o[0] $end
    $var wire 1 B rob_wb_en_o[1] $end
    $var wire 4 B" rob_entry_idx_i[0] [3:0] $end
    $var wire 4 C" rob_entry_idx_i[1] [3:0] $end
    $var wire 1 D" rob_full_i[0] $end
    $var wire 1 E" rob_full_i[1] $end
    $var wire 4 1" disp_ldq_idx_i [3:0] $end
    $var wire 4 2" disp_sdq_idx_i [3:0] $end
    $var wire 1 3" ldq_full_i $end
    $var wire 1 4" sdq_full_i $end
    $var wire 1 5" disp_vld_o $end
    $var wire 1 6" disp_is_store_o $end
    $var wire 32 7" disp_store_data_o [31:0] $end
    $var wire 5 8" disp_sdq_marker_o [4:0] $end
    $var wire 4 9" disp_rob_idx_o [3:0] $end
    $var wire 1 F" dispatch_stall [0:0] $end
    $var wire 1 C instr_vld[0] $end
    $var wire 1 D instr_vld[1] $end
    $var wire 127 E instr_pkt[0] [126:0] $end
    $var wire 127 I instr_pkt[1] [126:0] $end
    $var wire 128 M new_disp_pkt[0] [127:0] $end
    $var wire 128 Q new_disp_pkt[1] [127:0] $end
    $var wire 2 U required_fu[0] [1:0] $end
    $var wire 2 V required_fu[1] [1:0] $end
    $var wire 4 W pipe_free [3:0] $end
    $var wire 2 X assigned_pipe[0] [1:0] $end
    $var wire 2 Y assigned_pipe[1] [1:0] $end
    $var wire 1 Z assignment_vld[0] $end
    $var wire 1 [ assignment_vld[1] $end
    $var wire 4 \ pipe_claimed[0] [3:0] $end
    $var wire 4 ] pipe_claimed[1] [3:0] $end
    $var wire 1 ^ fire_vld[0] $end
    $var wire 1 _ fire_vld[1] $end
    $var wire 6 ` dm_dst_preg[0] [5:0] $end
    $var wire 6 a dm_dst_preg[1] [5:0] $end
    $var wire 4 b dm_fire_loc[0] [3:0] $end
    $var wire 4 c dm_fire_loc[1] [3:0] $end
    $var wire 6 d dm_src1_preg[0] [5:0] $end
    $var wire 6 e dm_src1_preg[1] [5:0] $end
    $var wire 6 f dm_src2_preg[0] [5:0] $end
    $var wire 6 g dm_src2_preg[1] [5:0] $end
    $var wire 1 h dm_src1_vld[0] $end
    $var wire 1 i dm_src1_vld[1] $end
    $var wire 1 j dm_src2_vld[0] $end
    $var wire 1 k dm_src2_vld[1] $end
    $var wire 16 l dm_dependency_mask[0] [15:0] $end
    $var wire 16 m dm_dependency_mask[1] [15:0] $end
    $var wire 1 G" dm_exec_vld[0] $end
    $var wire 1 H" dm_exec_vld[1] $end
    $var wire 1 I" dm_exec_vld[2] $end
    $var wire 1 J" dm_exec_vld[3] $end
    $var wire 6 K" dm_exec_dst_preg[0] [5:0] $end
    $var wire 6 L" dm_exec_dst_preg[1] [5:0] $end
    $var wire 6 M" dm_exec_dst_preg[2] [5:0] $end
    $var wire 6 N" dm_exec_dst_preg[3] [5:0] $end
    $scope module dmt_update $end
     $scope module unnamedblk3 $end
      $var wire 32 O" i [31:0] $end
     $upscope $end
    $upscope $end
    $scope module gen_disp_pkt $end
     $scope module unnamedblk5 $end
      $var wire 32 O" i [31:0] $end
     $upscope $end
    $upscope $end
    $scope module pipe_steering $end
     $scope module unnamedblk1 $end
      $var wire 32 O" i [31:0] $end
      $scope module unnamedblk2 $end
       $var wire 32 n j [31:0] $end
      $upscope $end
     $upscope $end
    $upscope $end
    $scope module pipeline_register $end
     $scope module unnamedblk6 $end
      $var wire 32 o i [31:0] $end
     $upscope $end
     $scope module unnamedblk7 $end
      $var wire 32 p i [31:0] $end
     $upscope $end
    $upscope $end
    $scope module u_dmt $end
     $var wire 1 |! clk_i $end
     $var wire 1 }! rst_i $end
     $var wire 1 &" flush_i $end
     $var wire 1 q fire_vld_i[0] $end
     $var wire 1 r fire_vld_i[1] $end
     $var wire 6 s dst_preg_i[0] [5:0] $end
     $var wire 6 t dst_preg_i[1] [5:0] $end
     $var wire 4 u fire_loc_i[0] [3:0] $end
     $var wire 4 v fire_loc_i[1] [3:0] $end
     $var wire 6 w src1_preg_i[0] [5:0] $end
     $var wire 6 x src1_preg_i[1] [5:0] $end
     $var wire 1 y src1_vld_i[0] $end
     $var wire 1 z src1_vld_i[1] $end
     $var wire 6 { src2_preg_i[0] [5:0] $end
     $var wire 6 | src2_preg_i[1] [5:0] $end
     $var wire 1 } src2_vld_i[0] $end
     $var wire 1 ~ src2_vld_i[1] $end
     $var wire 16 !! dependency_mask_o[0] [15:0] $end
     $var wire 16 "! dependency_mask_o[1] [15:0] $end
     $var wire 1 P" exec_vld_i[0] $end
     $var wire 1 Q" exec_vld_i[1] $end
     $var wire 1 R" exec_vld_i[2] $end
     $var wire 1 S" exec_vld_i[3] $end
     $var wire 6 T" exec_dst_preg_i[0] [5:0] $end
     $var wire 6 U" exec_dst_preg_i[1] [5:0] $end
     $var wire 6 V" exec_dst_preg_i[2] [5:0] $end
     $var wire 6 W" exec_dst_preg_i[3] [5:0] $end
     $var wire 5 #! src1_dmt_entry[0] [4:0] $end
     $var wire 5 $! src1_dmt_entry[1] [4:0] $end
     $var wire 5 %! src2_dmt_entry[0] [4:0] $end
     $var wire 5 &! src2_dmt_entry[1] [4:0] $end
     $scope module build_dependency_map $end
      $scope module unnamedblk1 $end
       $var wire 32 O" i [31:0] $end
       $scope module unnamedblk2 $end
        $var wire 32 X" j [31:0] $end
       $upscope $end
      $upscope $end
     $upscope $end
     $scope module write_dependency $end
      $scope module unnamedblk3 $end
       $var wire 32 '! i [31:0] $end
      $upscope $end
      $scope module unnamedblk4 $end
       $var wire 32 (! i [31:0] $end
      $upscope $end
      $scope module unnamedblk5 $end
       $var wire 32 )! i [31:0] $end
      $upscope $end
     $upscope $end
    $upscope $end
    $scope module u_instr_queue $end
     $var wire 32 Y" DEPTH [31:0] $end
     $var wire 1 |! clk_i $end
     $var wire 1 }! rst_i $end
     $var wire 1 &" flush_i $end
     $var wire 1 '" rename_vld_i[0] $end
     $var wire 1 (" rename_vld_i[1] $end
     $var wire 127 )" rename_pkt_i[0] [126:0] $end
     $var wire 127 -" rename_pkt_i[1] [126:0] $end
     $var wire 1 # full[0] $end
     $var wire 1 $ full[1] $end
     $var wire 1 *! dispatch_en_i[0] $end
     $var wire 1 +! dispatch_en_i[1] $end
     $var wire 1 C instr_vld_o[0] $end
     $var wire 1 D instr_vld_o[1] $end
     $var wire 127 E instr_pkt_o[0] [126:0] $end
     $var wire 127 I instr_pkt_o[1] [126:0] $end
     $var wire 32 Z" PTR_WIDTH [31:0] $end
     $var wire 5 ,! tail_ptr [4:0] $end
     $var wire 5 -! head_ptr [4:0] $end
     $var wire 127 .! queue[0] [126:0] $end
     $var wire 127 2! queue[1] [126:0] $end
     $var wire 127 6! queue[2] [126:0] $end
     $var wire 127 :! queue[3] [126:0] $end
     $var wire 127 >! queue[4] [126:0] $end
     $var wire 127 B! queue[5] [126:0] $end
     $var wire 127 F! queue[6] [126:0] $end
     $var wire 127 J! queue[7] [126:0] $end
     $var wire 127 N! queue[8] [126:0] $end
     $var wire 127 R! queue[9] [126:0] $end
     $var wire 127 V! queue[10] [126:0] $end
     $var wire 127 Z! queue[11] [126:0] $end
     $var wire 127 ^! queue[12] [126:0] $end
     $var wire 127 b! queue[13] [126:0] $end
     $var wire 127 f! queue[14] [126:0] $end
     $var wire 127 j! queue[15] [126:0] $end
     $var wire 1 n! instr_queue_full[0] $end
     $var wire 1 o! instr_queue_full[1] $end
     $var wire 2 p! num_allocated [1:0] $end
     $var wire 2 q! alloc_en [1:0] $end
     $var wire 5 r! alloc_ptr[0] [4:0] $end
     $var wire 5 s! alloc_ptr[1] [4:0] $end
     $var wire 4 t! alloc_idx[0] [3:0] $end
     $var wire 4 u! alloc_idx[1] [3:0] $end
     $var wire 2 v! num_dispatched [1:0] $end
     $var wire 2 w! dispatch_en [1:0] $end
     $var wire 4 x! dispatch_idx[0] [3:0] $end
     $var wire 4 y! dispatch_idx[1] [3:0] $end
     $scope module unnamedblk1 $end
      $var wire 32 O" i [31:0] $end
     $upscope $end
     $scope module unnamedblk2 $end
      $var wire 32 O" i [31:0] $end
     $upscope $end
     $scope module unnamedblk3 $end
      $var wire 32 O" i [31:0] $end
     $upscope $end
     $scope module unnamedblk4 $end
      $var wire 32 z! i [31:0] $end
     $upscope $end
     $scope module unnamedblk5 $end
      $var wire 32 {! i [31:0] $end
     $upscope $end
    $upscope $end
    $scope module unnamedblk4 $end
     $var wire 32 O" i [31:0] $end
    $upscope $end
   $upscope $end
  $upscope $end
 $upscope $end
$enddefinitions $end


#0
0#
0$
b00000000000000000000000000000000000000000000000000000000000000000000000000000000000000000000000000000000000000000000000000000000 %
b00000000000000000000000000000000000000000000000000000000000000000000000000000000000000000000000000000000000000000000000000000000 )
b00000000000000000000000000000000000000000000000000000000000000000000000000000000000000000000000000000000000000000000000000000000 -
b00000000000000000000000000000000000000000000000000000000000000000000000000000000000000000000000000000000000000000000000000000000 1
05
06
07
08
b0000000000000000 9
b0000000000000000 :
b0000000000000000 ;
b0000000000000000 <
0=
0>
b00000 ?
b00000 @
0A
0B
0C
0D
b0000000000000000000000000000000000000000000000000000000000000000000000000000000000000000000000000000000000000000000000000000000 E
b0000000000000000000000000000000000000000000000000000000000000000000000000000000000000000000000000000000000000000000000000000000 I
b00000000000000000000000000000000000000000000000000000000000000000000000000000000000000000000000000000000000000000000000000000000 M
b00000000000000000000000000000000000000000000000000000000000000000000000000000000000000000000000000000000000000000000000000000000 Q
b00 U
b00 V
b0011 W
b00 X
b00 Y
0Z
0[
b0000 \
b0000 ]
0^
0_
b000000 `
b000000 a
b0000 b
b0000 c
b000000 d
b000000 e
b000000 f
b000000 g
0h
0i
0j
0k
b0000000000000000 l
b0000000000000000 m
b00000000000000000000000000000100 n
b00000000000000000000000000000000 o
b00000000000000000000000000000000 p
0q
0r
b000000 s
b000000 t
b0000 u
b0000 v
b000000 w
b000000 x
0y
0z
b000000 {
b000000 |
0}
0~
b0000000000000000 !!
b0000000000000000 "!
b00000 #!
b00000 $!
b00000 %!
b00000 &!
b00000000000000000000000000000000 '!
b00000000000000000000000000000000 (!
b00000000000000000000000000000000 )!
0*!
0+!
b00000 ,!
b00000 -!
b0000000000000000000000000000000000000000000000000000000000000000000000000000000000000000000000000000000000000000000000000000000 .!
b0000000000000000000000000000000000000000000000000000000000000000000000000000000000000000000000000000000000000000000000000000000 2!
b0000000000000000000000000000000000000000000000000000000000000000000000000000000000000000000000000000000000000000000000000000000 6!
b0000000000000000000000000000000000000000000000000000000000000000000000000000000000000000000000000000000000000000000000000000000 :!
b0000000000000000000000000000000000000000000000000000000000000000000000000000000000000000000000000000000000000000000000000000000 >!
b0000000000000000000000000000000000000000000000000000000000000000000000000000000000000000000000000000000000000000000000000000000 B!
b0000000000000000000000000000000000000000000000000000000000000000000000000000000000000000000000000000000000000000000000000000000 F!
b0000000000000000000000000000000000000000000000000000000000000000000000000000000000000000000000000000000000000000000000000000000 J!
b0000000000000000000000000000000000000000000000000000000000000000000000000000000000000000000000000000000000000000000000000000000 N!
b0000000000000000000000000000000000000000000000000000000000000000000000000000000000000000000000000000000000000000000000000000000 R!
b0000000000000000000000000000000000000000000000000000000000000000000000000000000000000000000000000000000000000000000000000000000 V!
b0000000000000000000000000000000000000000000000000000000000000000000000000000000000000000000000000000000000000000000000000000000 Z!
b0000000000000000000000000000000000000000000000000000000000000000000000000000000000000000000000000000000000000000000000000000000 ^!
b0000000000000000000000000000000000000000000000000000000000000000000000000000000000000000000000000000000000000000000000000000000 b!
b0000000000000000000000000000000000000000000000000000000000000000000000000000000000000000000000000000000000000000000000000000000 f!
b0000000000000000000000000000000000000000000000000000000000000000000000000000000000000000000000000000000000000000000000000000000 j!
0n!
0o!
b00 p!
b00 q!
b00000 r!
b00001 s!
b0000 t!
b0001 u!
b00 v!
b00 w!
b0000 x!
b0001 y!
b00000000000000000000000000000000 z!
b00000000000000000000000000000000 {!
0|!
1}!
b00000000000000000000000000000000 ~!
b00000000000000000000000000010100 !"
r0.5 ""
b00000000000000000000000000000000 $"
0%"
0&"
0'"
0("
b0000000000000000000000000000000000000000000000000000000000000000000000000000000000000000000000000000000000000000000000000000000 )"
b0000000000000000000000000000000000000000000000000000000000000000000000000000000000000000000000000000000000000000000000000000000 -"
b0000 1"
b0000 2"
03"
04"
05"
06"
b00000000000000000000000000000000 7"
b00000 8"
b0000 9"
b00 :"
b00 ;"
b00 <"
b00 ="
0>"
0?"
0@"
0A"
b0000 B"
b0000 C"
0D"
0E"
0F"
0G"
0H"
0I"
0J"
b000000 K"
b000000 L"
b000000 M"
b000000 N"
b00000000000000000000000000000010 O"
0P"
0Q"
0R"
0S"
b000000 T"
b000000 U"
b000000 V"
b000000 W"
b00000000000000000000000000000001 X"
b00000000000000000000000000010000 Y"
b00000000000000000000000000000100 Z"
b00000000000000000000000000000010 ["
b00000000000000000000000001000000 \"
b00000000000000000000000000100000 ]"
b00 ^"
b01 _"
b00000000000000000000000010000000 `"
b00000000000000000000000000000110 a"
b00000000000000000000000000010110 b"
#10000
b00000000000000000000000000000100 o
b00000000000000000000000001000000 '!
b00000000000000000000000000010000 z!
1|!
b00000000000000000000000000000001 ~!
#20000
0|!
#30000
1|!
b00000000000000000000000000000010 ~!
#40000
0|!
#50000
1|!
b00000000000000000000000000000011 ~!
#60000
0|!
0}!
#70000
15
b00000000000000000000000000000010 p
b00000000000000000000000000000010 (!
b00000000000000000000000000000100 )!
b00000000000000000000000000000010 {!
1|!
b00000000000000000000000000000100 ~!
#80000
0|!
#90000
1|!
b00000000000000000000000000000101 ~!
#100000
0|!
#110000
1|!
b00000000000000000000000000000110 ~!
#120000
0|!
#130000
1|!
b00000000000000000000000000000111 ~!
#140000
0|!
#150000
1|!
b00000000000000000000000000001000 ~!
#160000
0|!
#170000
1|!
b00000000000000000000000000001001 ~!
