Processor/tb_reorder_buffer.vcd
$version Generated by VerilatedVcd $end
$timescale 1ps $end
 $scope module TOP $end
  $scope module CORE_PKG $end
   $var wire 32 D! DECODE_WIDTH [31:0] $end
   $var wire 32 D! RENAME_WIDTH [31:0] $end
   $var wire 32 `! NUM_PREGS [31:0] $end
   $var wire 32 a! NUM_AREGS [31:0] $end
   $var wire 32 I! RS_ENTRIES [31:0] $end
   $var wire 32 I! NUM_FUS [31:0] $end
   $var wire 32 D! FRONTEND_WIDTH [31:0] $end
   $var wire 32 G! ROB_ENTRIES [31:0] $end
   $var wire 32 D! RETIRE_WIDTH [31:0] $end
   $var wire 32 D! FIRE_WIDTH [31:0] $end
   $var wire 2 b! FU_TYPE[0] [1:0] $end
   $var wire 2 b! FU_TYPE[1] [1:0] $end
   $var wire 2 b! FU_TYPE[2] [1:0] $end
   $var wire 2 c! FU_TYPE[3] [1:0] $end
   $var wire 32 G! LDQ_ENTRIES [31:0] $end
   $var wire 32 G! SDQ_ENTRIES [31:0] $end
   $var wire 32 G! NUM_MSHR_ENTS [31:0] $end
   $var wire 32 d! CACHE_BLOCK_SIZE [31:0] $end
   $var wire 32 `! NUM_CACHE_ENTS [31:0] $end
   $var wire 32 e! NUM_IDX_BITS [31:0] $end
   $var wire 32 D! BLOCK_OFFSET_BITS [31:0] $end
   $var wire 32 f! NUM_TAG_BITS [31:0] $end
  $upscope $end
  $scope module tb_reorder_buffer $end
   $var wire 32 @! CLK_PERIOD [31:0] $end
   $var real 64 A! DUTY_CYCLE $end
   $var wire 1 =! clk $end
   $var wire 1 >! rst $end
   $var wire 32 ?! cycle_count [31:0] $end
   $var wire 32 C! pass_count [31:0] $end
   $var wire 32 C! fail_count [31:0] $end
   $var wire 32 D! RETIRE_WIDTH [31:0] $end
   $var wire 32 D! FIRE_WIDTH [31:0] $end
   $scope module disp_if[0] $end
    $var wire 1 N! fire_valid $end
    $var wire 5 O! dest_reg [4:0] $end
    $var wire 4 ;! rob_entry_idx [3:0] $end
    $var wire 1 <! rob_full $end
    $var wire 1 P! wb_en $end
   $upscope $end
   $scope module disp_if[1] $end
    $var wire 1 K! fire_valid $end
    $var wire 5 L! dest_reg [4:0] $end
    $var wire 4 9! rob_entry_idx [3:0] $end
    $var wire 1 :! rob_full $end
    $var wire 1 M! wb_en $end
   $upscope $end
   $scope module exec_if[0] $end
    $var wire 1 [! br_mispred $end
    $var wire 1 \! exception $end
    $var wire 4 ]! rob_entry_idx [3:0] $end
    $var wire 1 ^! ex_valid $end
    $var wire 32 _! ex_val [31:0] $end
   $upscope $end
   $scope module exec_if[1] $end
    $var wire 1 V! br_mispred $end
    $var wire 1 W! exception $end
    $var wire 4 X! rob_entry_idx [3:0] $end
    $var wire 1 Y! ex_valid $end
    $var wire 32 Z! ex_val [31:0] $end
   $upscope $end
   $scope module exec_if[2] $end
    $var wire 1 Q! br_mispred $end
    $var wire 1 R! exception $end
    $var wire 4 S! rob_entry_idx [3:0] $end
    $var wire 1 T! ex_valid $end
    $var wire 32 U! ex_val [31:0] $end
   $upscope $end
   $scope module arch_reg_file_if[0] $end
    $var wire 5 6! dest_reg [4:0] $end
    $var wire 32 7! result [31:0] $end
    $var wire 1 8! valid $end
   $upscope $end
   $scope module arch_reg_file_if[1] $end
    $var wire 5 3! dest_reg [4:0] $end
    $var wire 32 4! result [31:0] $end
    $var wire 1 5! valid $end
   $upscope $end
   $scope module flush_if $end
    $var wire 1 1! flush_out $end
    $var wire 32 2! pc [31:0] $end
   $upscope $end
   $scope module dut $end
    $var wire 32 D! RETIRE_WIDTH [31:0] $end
    $var wire 32 D! FIRE_WIDTH [31:0] $end
    $var wire 1 =! clk $end
    $var wire 1 >! rst $end
    $var wire 1 E! flush_en $end
    $scope module disp_if[0] $end
     $var wire 1 N! fire_valid $end
     $var wire 5 O! dest_reg [4:0] $end
     $var wire 4 ;! rob_entry_idx [3:0] $end
     $var wire 1 <! rob_full $end
     $var wire 1 P! wb_en $end
    $upscope $end
    $scope module disp_if[1] $end
     $var wire 1 K! fire_valid $end
     $var wire 5 L! dest_reg [4:0] $end
     $var wire 4 9! rob_entry_idx [3:0] $end
     $var wire 1 :! rob_full $end
     $var wire 1 M! wb_en $end
    $upscope $end
    $scope module exec_if[0] $end
     $var wire 1 [! br_mispred $end
     $var wire 1 \! exception $end
     $var wire 4 ]! rob_entry_idx [3:0] $end
     $var wire 1 ^! ex_valid $end
     $var wire 32 _! ex_val [31:0] $end
    $upscope $end
    $scope module exec_if[1] $end
     $var wire 1 V! br_mispred $end
     $var wire 1 W! exception $end
     $var wire 4 X! rob_entry_idx [3:0] $end
     $var wire 1 Y! ex_valid $end
     $var wire 32 Z! ex_val [31:0] $end
    $upscope $end
    $scope module exec_if[2] $end
     $var wire 1 Q! br_mispred $end
     $var wire 1 R! exception $end
     $var wire 4 S! rob_entry_idx [3:0] $end
     $var wire 1 T! ex_valid $end
     $var wire 32 U! ex_val [31:0] $end
    $upscope $end
    $scope module arch_reg_file_if[0] $end
     $var wire 5 6! dest_reg [4:0] $end
     $var wire 32 7! result [31:0] $end
     $var wire 1 8! valid $end
    $upscope $end
    $scope module arch_reg_file_if[1] $end
     $var wire 5 3! dest_reg [4:0] $end
     $var wire 32 4! result [31:0] $end
     $var wire 1 5! valid $end
    $upscope $end
    $scope module flush_if $end
     $var wire 1 1! flush_out $end
     $var wire 32 2! pc [31:0] $end
    $upscope $end
    $var wire 32 F! RESULT_FINISH_WIDTH [31:0] $end
    $var wire 32 G! ROB_DEPTH [31:0] $end
    $var wire 32 H! PTR_WIDTH [31:0] $end
    $var wire 32 I! IDX_WIDTH [31:0] $end
    $var wire 40 / rob_entries[0] [39:0] $end
    $var wire 40 1 rob_entries[1] [39:0] $end
    $var wire 40 3 rob_entries[2] [39:0] $end
    $var wire 40 5 rob_entries[3] [39:0] $end
    $var wire 40 7 rob_entries[4] [39:0] $end
    $var wire 40 9 rob_entries[5] [39:0] $end
    $var wire 40 ; rob_entries[6] [39:0] $end
    $var wire 40 = rob_entries[7] [39:0] $end
    $var wire 40 ? rob_entries[8] [39:0] $end
    $var wire 40 A rob_entries[9] [39:0] $end
    $var wire 40 C rob_entries[10] [39:0] $end
    $var wire 40 E rob_entries[11] [39:0] $end
    $var wire 40 G rob_entries[12] [39:0] $end
    $var wire 40 I rob_entries[13] [39:0] $end
    $var wire 40 K rob_entries[14] [39:0] $end
    $var wire 40 M rob_entries[15] [39:0] $end
    $var wire 34 O rob_status[0] [33:0] $end
    $var wire 34 Q rob_status[1] [33:0] $end
    $var wire 34 S rob_status[2] [33:0] $end
    $var wire 34 U rob_status[3] [33:0] $end
    $var wire 34 W rob_status[4] [33:0] $end
    $var wire 34 Y rob_status[5] [33:0] $end
    $var wire 34 [ rob_status[6] [33:0] $end
    $var wire 34 ] rob_status[7] [33:0] $end
    $var wire 34 _ rob_status[8] [33:0] $end
    $var wire 34 a rob_status[9] [33:0] $end
    $var wire 34 c rob_status[10] [33:0] $end
    $var wire 34 e rob_status[11] [33:0] $end
    $var wire 34 g rob_status[12] [33:0] $end
    $var wire 34 i rob_status[13] [33:0] $end
    $var wire 34 k rob_status[14] [33:0] $end
    $var wire 34 m rob_status[15] [33:0] $end
    $var wire 5 o head_ptr [4:0] $end
    $var wire 5 p tail_ptr [4:0] $end
    $var wire 2 # alloc_valid [1:0] $end
    $var wire 2 q alloc_full [1:0] $end
    $var wire 4 r alloc_idx[0] [3:0] $end
    $var wire 4 s alloc_idx[1] [3:0] $end
    $var wire 5 t alloc_ptr[0] [4:0] $end
    $var wire 5 u alloc_ptr[1] [4:0] $end
    $var wire 40 $ alloc_entry[0] [39:0] $end
    $var wire 40 & alloc_entry[1] [39:0] $end
    $var wire 2 v alloc_enable [1:0] $end
    $var wire 2 w num_allocations [1:0] $end
    $var wire 2 x retire_valid [1:0] $end
    $var wire 2 y retire_ready [1:0] $end
    $var wire 2 z retire_enable [1:0] $end
    $var wire 2 { retire_flush [1:0] $end
    $var wire 2 | retire_exception [1:0] $end
    $var wire 4 } retire_idx[0] [3:0] $end
    $var wire 4 ~ retire_idx[1] [3:0] $end
    $var wire 5 !! retire_ptr[0] [4:0] $end
    $var wire 5 "! retire_ptr[1] [4:0] $end
    $var wire 40 #! retire_entry[0] [39:0] $end
    $var wire 40 %! retire_entry[1] [39:0] $end
    $var wire 34 '! retire_status[0] [33:0] $end
    $var wire 34 )! retire_status[1] [33:0] $end
    $var wire 2 +! num_retirements [1:0] $end
    $var wire 3 ( result_valid [2:0] $end
    $var wire 4 ) result_idx[0] [3:0] $end
    $var wire 4 * result_idx[1] [3:0] $end
    $var wire 4 + result_idx[2] [3:0] $end
    $var wire 32 , result_data[0] [31:0] $end
    $var wire 32 - result_data[1] [31:0] $end
    $var wire 32 . result_data[2] [31:0] $end
    $var wire 32 ,! restore_pc [31:0] $end
    $scope module unnamedblk1 $end
     $var wire 32 J! i [31:0] $end
    $upscope $end
    $scope module unnamedblk2 $end
     $var wire 32 J! i [31:0] $end
    $upscope $end
    $scope module unnamedblk3 $end
     $var wire 32 -! i [31:0] $end
    $upscope $end
    $scope module unnamedblk4 $end
     $var wire 32 .! i [31:0] $end
    $upscope $end
    $scope module unnamedblk5 $end
     $var wire 32 /! i [31:0] $end
    $upscope $end
    $scope module unnamedblk6 $end
     $var wire 32 0! i [31:0] $end
    $upscope $end
   $upscope $end
  $upscope $end
 $upscope $end
$enddefinitions $end


#0
b00 #
b0000000000000000000000000000000000000000 $
b0000000000000000000000000000000000000000 &
b000 (
b0000 )
b0000 *
b0000 +
b00000000000000000000000000000000 ,
b00000000000000000000000000000000 -
b00000000000000000000000000000000 .
b0000000000000000000000000000000000000000 /
b0000000000000000000000000000000000000000 1
b0000000000000000000000000000000000000000 3
b0000000000000000000000000000000000000000 5
b0000000000000000000000000000000000000000 7
b0000000000000000000000000000000000000000 9
b0000000000000000000000000000000000000000 ;
b0000000000000000000000000000000000000000 =
b0000000000000000000000000000000000000000 ?
b0000000000000000000000000000000000000000 A
b0000000000000000000000000000000000000000 C
b0000000000000000000000000000000000000000 E
b0000000000000000000000000000000000000000 G
b0000000000000000000000000000000000000000 I
b0000000000000000000000000000000000000000 K
b0000000000000000000000000000000000000000 M
b0000000000000000000000000000000000 O
b0000000000000000000000000000000000 Q
b0000000000000000000000000000000000 S
b0000000000000000000000000000000000 U
b0000000000000000000000000000000000 W
b0000000000000000000000000000000000 Y
b0000000000000000000000000000000000 [
b0000000000000000000000000000000000 ]
b0000000000000000000000000000000000 _
b0000000000000000000000000000000000 a
b0000000000000000000000000000000000 c
b0000000000000000000000000000000000 e
b0000000000000000000000000000000000 g
b0000000000000000000000000000000000 i
b0000000000000000000000000000000000 k
b0000000000000000000000000000000000 m
b00000 o
b00000 p
b00 q
b0000 r
b0001 s
b00000 t
b00001 u
b00 v
b00 w
b00 x
b00 y
b00 z
b00 {
b00 |
b0000 }
b0001 ~
b00000 !!
b00001 "!
b0000000000000000000000000000000000000000 #!
b0000000000000000000000000000000000000000 %!
b0000000000000000000000000000000000 '!
b0000000000000000000000000000000000 )!
b00 +!
b00000000000000000000000000000000 ,!
b00000000000000000000000000000000 -!
b00000000000000000000000000000000 .!
b00000000000000000000000000000000 /!
b00000000000000000000000000000000 0!
01!
b00000000000000000000000000000000 2!
b00000 3!
b00000000000000000000000000000000 4!
05!
b00000 6!
b00000000000000000000000000000000 7!
08!
b0001 9!
0:!
b0000 ;!
0<!
0=!
0>!
b00000000000000000000000000000000 ?!
b00000000000000000000000000010100 @!
r0.5 A!
b00000000000000000000000000000000 C!
b00000000000000000000000000000010 D!
0E!
b00000000000000000000000000000011 F!
b00000000000000000000000000010000 G!
b00000000000000000000000000000101 H!
b00000000000000000000000000000100 I!
b00000000000000000000000000000010 J!
0K!
b00000 L!
0M!
0N!
b00000 O!
0P!
0Q!
0R!
b0000 S!
0T!
b00000000000000000000000000000000 U!
0V!
0W!
b0000 X!
0Y!
b00000000000000000000000000000000 Z!
0[!
0\!
b0000 ]!
0^!
b00000000000000000000000000000000 _!
b00000000000000000000000001000000 `!
b00000000000000000000000000100000 a!
b00 b!
b01 c!
b00000000000000000000000010000000 d!
b00000000000000000000000000000110 e!
b00000000000000000000000000010110 f!
#10000
b00000000000000000000000000000010 .!
b00000000000000000000000000000011 /!
b00000000000000000000000000000010 0!
1=!
b00000000000000000000000000000001 ?!
#20000
0=!
1>!
#30000
b00000000000000000000000000010000 -!
1=!
b00000000000000000000000000000010 ?!
#40000
0=!
#50000
1=!
b00000000000000000000000000000011 ?!
#60000
0=!
0>!
#70000
1=!
b00000000000000000000000000000100 ?!
#80000
0=!
#90000
1=!
b00000000000000000000000000000101 ?!
#100000
0=!
#110000
1=!
b00000000000000000000000000000110 ?!
#120000
0=!
#130000
1=!
b00000000000000000000000000000111 ?!
#140000
0=!
#150000
1=!
b00000000000000000000000000001000 ?!
#160000
0=!
#170000
1=!
b00000000000000000000000000001001 ?!
