Processor/tb_scheduler.vcd
$version Generated by VerilatedVcd $end
$timescale 1ps $end
 $scope module TOP $end
  $scope module CORE_PKG $end
   $var wire 32 !# NUM_PREGS [31:0] $end
   $var wire 32 n" NUM_AREGS [31:0] $end
   $var wire 32 n" RS_ENTRIES [31:0] $end
   $var wire 32 "# NUM_FUS [31:0] $end
  $upscope $end
  $scope module tb_scheduler $end
   $var wire 32 a" CLK_PERIOD [31:0] $end
   $var real 64 b" DUTY_CYCLE $end
   $var wire 1 ^" clk $end
   $var wire 1 _" rst $end
   $var wire 32 `" cycle_count [31:0] $end
   $var wire 32 d" local_ready_mask [31:0] $end
   $var wire 128 e" global_ready_mask [127:0] $end
   $scope module disp_if $end
    $var wire 83 |" disp_pkt [82:0] $end
    $var wire 1 p" disp_valid $end
    $var wire 2 & rs_entry_idx [1:0] $end
    $var wire 1 3! rs_full $end
    $var wire 128 q" dependency_mask [127:0] $end
   $upscope $end
   $scope module exec_if $end
    $var wire 5 z" retire_rs_entry [4:0] $end
    $var wire 1 {" retire_rs_valid $end
   $upscope $end
   $scope module reg_read_if $end
    $var wire 83 )! sched_pkt [82:0] $end
    $var wire 1 % fire_valid $end
   $upscope $end
   $var wire 32 i" pass_count [31:0] $end
   $var wire 32 i" fail_count [31:0] $end
   $scope module dut $end
    $var wire 1 ^" clk $end
    $var wire 1 _" rst $end
    $var wire 32 d" local_ready_mask [31:0] $end
    $var wire 128 e" global_ready_mask [127:0] $end
    $scope module disp_if $end
     $var wire 83 |" disp_pkt [82:0] $end
     $var wire 1 p" disp_valid $end
     $var wire 2 & rs_entry_idx [1:0] $end
     $var wire 1 3! rs_full $end
     $var wire 128 q" dependency_mask [127:0] $end
    $upscope $end
    $scope module exec_if $end
     $var wire 5 z" retire_rs_entry [4:0] $end
     $var wire 1 {" retire_rs_valid $end
    $upscope $end
    $scope module reg_read_if $end
     $var wire 83 )! sched_pkt [82:0] $end
     $var wire 1 % fire_valid $end
    $upscope $end
    $var wire 32 # reqs [31:0] $end
    $var wire 5 $ grant [4:0] $end
    $var wire 1 % grant_valid $end
    $var wire 5 j" retire_rs_entry [4:0] $end
    $var wire 1 k" retire_rs_valid $end
    $var wire 2 & rs_entry_idx [1:0] $end
    $var wire 1 l" all_fu_ready_mask $end
    $var wire 1 m" valid $end
    $var wire 83 ' payload_ram[0] [82:0] $end
    $var wire 83 * payload_ram[1] [82:0] $end
    $var wire 83 - payload_ram[2] [82:0] $end
    $var wire 83 0 payload_ram[3] [82:0] $end
    $var wire 83 3 payload_ram[4] [82:0] $end
    $var wire 83 6 payload_ram[5] [82:0] $end
    $var wire 83 9 payload_ram[6] [82:0] $end
    $var wire 83 < payload_ram[7] [82:0] $end
    $var wire 83 ? payload_ram[8] [82:0] $end
    $var wire 83 B payload_ram[9] [82:0] $end
    $var wire 83 E payload_ram[10] [82:0] $end
    $var wire 83 H payload_ram[11] [82:0] $end
    $var wire 83 K payload_ram[12] [82:0] $end
    $var wire 83 N payload_ram[13] [82:0] $end
    $var wire 83 Q payload_ram[14] [82:0] $end
    $var wire 83 T payload_ram[15] [82:0] $end
    $var wire 83 W payload_ram[16] [82:0] $end
    $var wire 83 Z payload_ram[17] [82:0] $end
    $var wire 83 ] payload_ram[18] [82:0] $end
    $var wire 83 ` payload_ram[19] [82:0] $end
    $var wire 83 c payload_ram[20] [82:0] $end
    $var wire 83 f payload_ram[21] [82:0] $end
    $var wire 83 i payload_ram[22] [82:0] $end
    $var wire 83 l payload_ram[23] [82:0] $end
    $var wire 83 o payload_ram[24] [82:0] $end
    $var wire 83 r payload_ram[25] [82:0] $end
    $var wire 83 u payload_ram[26] [82:0] $end
    $var wire 83 x payload_ram[27] [82:0] $end
    $var wire 83 { payload_ram[28] [82:0] $end
    $var wire 83 ~ payload_ram[29] [82:0] $end
    $var wire 83 #! payload_ram[30] [82:0] $end
    $var wire 83 &! payload_ram[31] [82:0] $end
    $var wire 83 )! payload_ram_out [82:0] $end
    $scope module select $end
     $var wire 1 ^" clk $end
     $var wire 1 m" rst $end
     $var wire 32 # reqs [31:0] $end
     $var wire 5 $ grant [4:0] $end
     $var wire 1 % grant_valid $end
     $scope module request_arbiter $end
      $var wire 32 n" NUM_REQUESTS [31:0] $end
      $var wire 1 ^" clk $end
      $var wire 1 m" rst $end
      $var wire 32 # req [31:0] $end
      $var wire 5 $ gnt [4:0] $end
      $var wire 1 % gnt_valid $end
      $var wire 32 ,! mask [31:0] $end
      $var wire 5 -! curr_priority [4:0] $end
      $var wire 32 .! masked_req [31:0] $end
      $var wire 32 /! curr_req [31:0] $end
      $var wire 1 0! flag $end
      $scope module unnamedblk1 $end
       $var wire 32 o" i [31:0] $end
      $upscope $end
     $upscope $end
    $upscope $end
    $scope module unnamedblk1 $end
     $var wire 32 1! i [31:0] $end
    $upscope $end
    $scope module wakeup $end
     $var wire 1 ^" clk $end
     $var wire 1 _" rst $end
     $var wire 1 p" disp_valid $end
     $var wire 128 q" dependency_mask [127:0] $end
     $var wire 5 2! free_entry_out [4:0] $end
     $var wire 1 3! full_out $end
     $var wire 32 # reqs [31:0] $end
     $var wire 5 $ grant [4:0] $end
     $var wire 1 % grant_valid $end
     $var wire 128 u" ready_mask [127:0] $end
     $var wire 5 j" retire_entry [4:0] $end
     $var wire 1 k" retire_valid $end
     $var wire 32 4! entry_valid [31:0] $end
     $var wire 32 5! entry_granted [31:0] $end
     $var wire 5 6! free_entry [4:0] $end
     $var wire 1 7! full $end
     $var wire 128 8! dependency_matrix_row[0] [127:0] $end
     $var wire 128 <! dependency_matrix_row[1] [127:0] $end
     $var wire 128 @! dependency_matrix_row[2] [127:0] $end
     $var wire 128 D! dependency_matrix_row[3] [127:0] $end
     $var wire 128 H! dependency_matrix_row[4] [127:0] $end
     $var wire 128 L! dependency_matrix_row[5] [127:0] $end
     $var wire 128 P! dependency_matrix_row[6] [127:0] $end
     $var wire 128 T! dependency_matrix_row[7] [127:0] $end
     $var wire 128 X! dependency_matrix_row[8] [127:0] $end
     $var wire 128 \! dependency_matrix_row[9] [127:0] $end
     $var wire 128 `! dependency_matrix_row[10] [127:0] $end
     $var wire 128 d! dependency_matrix_row[11] [127:0] $end
     $var wire 128 h! dependency_matrix_row[12] [127:0] $end
     $var wire 128 l! dependency_matrix_row[13] [127:0] $end
     $var wire 128 p! dependency_matrix_row[14] [127:0] $end
     $var wire 128 t! dependency_matrix_row[15] [127:0] $end
     $var wire 128 x! dependency_matrix_row[16] [127:0] $end
     $var wire 128 |! dependency_matrix_row[17] [127:0] $end
     $var wire 128 "" dependency_matrix_row[18] [127:0] $end
     $var wire 128 &" dependency_matrix_row[19] [127:0] $end
     $var wire 128 *" dependency_matrix_row[20] [127:0] $end
     $var wire 128 ." dependency_matrix_row[21] [127:0] $end
     $var wire 128 2" dependency_matrix_row[22] [127:0] $end
     $var wire 128 6" dependency_matrix_row[23] [127:0] $end
     $var wire 128 :" dependency_matrix_row[24] [127:0] $end
     $var wire 128 >" dependency_matrix_row[25] [127:0] $end
     $var wire 128 B" dependency_matrix_row[26] [127:0] $end
     $var wire 128 F" dependency_matrix_row[27] [127:0] $end
     $var wire 128 J" dependency_matrix_row[28] [127:0] $end
     $var wire 128 N" dependency_matrix_row[29] [127:0] $end
     $var wire 128 R" dependency_matrix_row[30] [127:0] $end
     $var wire 128 V" dependency_matrix_row[31] [127:0] $end
     $var wire 1 Z" flag $end
     $scope module unnamedblk1 $end
      $var wire 32 [" i [31:0] $end
      $scope module unnamedblk2 $end
       $var wire 32 \" j [31:0] $end
      $upscope $end
     $upscope $end
     $scope module unnamedblk3 $end
      $var wire 32 ]" i [31:0] $end
     $upscope $end
     $scope module unnamedblk4 $end
      $var wire 32 y" i [31:0] $end
     $upscope $end
     $scope module unnamedblk5 $end
      $var wire 32 y" i [31:0] $end
     $upscope $end
    $upscope $end
   $upscope $end
  $upscope $end
 $upscope $end
$enddefinitions $end


#0
b00000000000000000000000000000000 #
b00000 $
0%
b00 &
b00000000000000000000000000000000000000000000000000000000000000000000000000000000000 '
b00000000000000000000000000000000000000000000000000000000000000000000000000000000000 *
b00000000000000000000000000000000000000000000000000000000000000000000000000000000000 -
b00000000000000000000000000000000000000000000000000000000000000000000000000000000000 0
b00000000000000000000000000000000000000000000000000000000000000000000000000000000000 3
b00000000000000000000000000000000000000000000000000000000000000000000000000000000000 6
b00000000000000000000000000000000000000000000000000000000000000000000000000000000000 9
b00000000000000000000000000000000000000000000000000000000000000000000000000000000000 <
b00000000000000000000000000000000000000000000000000000000000000000000000000000000000 ?
b00000000000000000000000000000000000000000000000000000000000000000000000000000000000 B
b00000000000000000000000000000000000000000000000000000000000000000000000000000000000 E
b00000000000000000000000000000000000000000000000000000000000000000000000000000000000 H
b00000000000000000000000000000000000000000000000000000000000000000000000000000000000 K
b00000000000000000000000000000000000000000000000000000000000000000000000000000000000 N
b00000000000000000000000000000000000000000000000000000000000000000000000000000000000 Q
b00000000000000000000000000000000000000000000000000000000000000000000000000000000000 T
b00000000000000000000000000000000000000000000000000000000000000000000000000000000000 W
b00000000000000000000000000000000000000000000000000000000000000000000000000000000000 Z
b00000000000000000000000000000000000000000000000000000000000000000000000000000000000 ]
b00000000000000000000000000000000000000000000000000000000000000000000000000000000000 `
b00000000000000000000000000000000000000000000000000000000000000000000000000000000000 c
b00000000000000000000000000000000000000000000000000000000000000000000000000000000000 f
b00000000000000000000000000000000000000000000000000000000000000000000000000000000000 i
b00000000000000000000000000000000000000000000000000000000000000000000000000000000000 l
b00000000000000000000000000000000000000000000000000000000000000000000000000000000000 o
b00000000000000000000000000000000000000000000000000000000000000000000000000000000000 r
b00000000000000000000000000000000000000000000000000000000000000000000000000000000000 u
b00000000000000000000000000000000000000000000000000000000000000000000000000000000000 x
b00000000000000000000000000000000000000000000000000000000000000000000000000000000000 {
b00000000000000000000000000000000000000000000000000000000000000000000000000000000000 ~
b00000000000000000000000000000000000000000000000000000000000000000000000000000000000 #!
b00000000000000000000000000000000000000000000000000000000000000000000000000000000000 &!
b00000000000000000000000000000000000000000000000000000000000000000000000000000000000 )!
b11111111111111111111111111111111 ,!
b00000 -!
b00000000000000000000000000000000 .!
b00000000000000000000000000000000 /!
00!
b00000000000000000000000000000000 1!
b00000 2!
03!
b00000000000000000000000000000000 4!
b00000000000000000000000000000000 5!
b00000 6!
07!
b00000000000000000000000000000000000000000000000000000000000000000000000000000000000000000000000000000000000000000000000000000000 8!
b00000000000000000000000000000000000000000000000000000000000000000000000000000000000000000000000000000000000000000000000000000000 <!
b00000000000000000000000000000000000000000000000000000000000000000000000000000000000000000000000000000000000000000000000000000000 @!
b00000000000000000000000000000000000000000000000000000000000000000000000000000000000000000000000000000000000000000000000000000000 D!
b00000000000000000000000000000000000000000000000000000000000000000000000000000000000000000000000000000000000000000000000000000000 H!
b00000000000000000000000000000000000000000000000000000000000000000000000000000000000000000000000000000000000000000000000000000000 L!
b00000000000000000000000000000000000000000000000000000000000000000000000000000000000000000000000000000000000000000000000000000000 P!
b00000000000000000000000000000000000000000000000000000000000000000000000000000000000000000000000000000000000000000000000000000000 T!
b00000000000000000000000000000000000000000000000000000000000000000000000000000000000000000000000000000000000000000000000000000000 X!
b00000000000000000000000000000000000000000000000000000000000000000000000000000000000000000000000000000000000000000000000000000000 \!
b00000000000000000000000000000000000000000000000000000000000000000000000000000000000000000000000000000000000000000000000000000000 `!
b00000000000000000000000000000000000000000000000000000000000000000000000000000000000000000000000000000000000000000000000000000000 d!
b00000000000000000000000000000000000000000000000000000000000000000000000000000000000000000000000000000000000000000000000000000000 h!
b00000000000000000000000000000000000000000000000000000000000000000000000000000000000000000000000000000000000000000000000000000000 l!
b00000000000000000000000000000000000000000000000000000000000000000000000000000000000000000000000000000000000000000000000000000000 p!
b00000000000000000000000000000000000000000000000000000000000000000000000000000000000000000000000000000000000000000000000000000000 t!
b00000000000000000000000000000000000000000000000000000000000000000000000000000000000000000000000000000000000000000000000000000000 x!
b00000000000000000000000000000000000000000000000000000000000000000000000000000000000000000000000000000000000000000000000000000000 |!
b00000000000000000000000000000000000000000000000000000000000000000000000000000000000000000000000000000000000000000000000000000000 ""
b00000000000000000000000000000000000000000000000000000000000000000000000000000000000000000000000000000000000000000000000000000000 &"
b00000000000000000000000000000000000000000000000000000000000000000000000000000000000000000000000000000000000000000000000000000000 *"
b00000000000000000000000000000000000000000000000000000000000000000000000000000000000000000000000000000000000000000000000000000000 ."
b00000000000000000000000000000000000000000000000000000000000000000000000000000000000000000000000000000000000000000000000000000000 2"
b00000000000000000000000000000000000000000000000000000000000000000000000000000000000000000000000000000000000000000000000000000000 6"
b00000000000000000000000000000000000000000000000000000000000000000000000000000000000000000000000000000000000000000000000000000000 :"
b00000000000000000000000000000000000000000000000000000000000000000000000000000000000000000000000000000000000000000000000000000000 >"
b00000000000000000000000000000000000000000000000000000000000000000000000000000000000000000000000000000000000000000000000000000000 B"
b00000000000000000000000000000000000000000000000000000000000000000000000000000000000000000000000000000000000000000000000000000000 F"
b00000000000000000000000000000000000000000000000000000000000000000000000000000000000000000000000000000000000000000000000000000000 J"
b00000000000000000000000000000000000000000000000000000000000000000000000000000000000000000000000000000000000000000000000000000000 N"
b00000000000000000000000000000000000000000000000000000000000000000000000000000000000000000000000000000000000000000000000000000000 R"
b00000000000000000000000000000000000000000000000000000000000000000000000000000000000000000000000000000000000000000000000000000000 V"
1Z"
b00000000000000000000000000000000 ["
b00000000000000000000000000000000 \"
b00000000000000000000000000000000 ]"
0^"
1_"
b00000000000000000000000000000000 `"
b00000000000000000000000000010100 a"
r0.5 b"
b00000000000000000000000000000000 d"
b00000000000000000000000000000000000000000000000000000000000000000000000000000000000000000000000000000000000000000000000000000000 e"
b00000000000000000000000000000000 i"
b00000 j"
0k"
0l"
0m"
b00000000000000000000000000100000 n"
b11111111111111111111111111111111 o"
0p"
b00000000000000000000000000000000000000000000000000000000000000000000000000000000000000000000000000000000000000000000000000000000 q"
b00000000000000000000000000000000000000000000000000000000000000000000000000000000000000000000000000000000000000000000000000000000 u"
b00000000000000000000000000100000 y"
b00000 z"
0{"
b00000000000000000000000000000000000000000000000000000000000000000000000000000000000 |"
b00000000000000000000000001000000 !#
b00000000000000000000000000000100 "#
#10000
b00000000000000000000000000100000 1!
b00000000000000000000000000100000 ["
b00000000000000000000000010000000 \"
1^"
b00000000000000000000000000000001 `"
#20000
0^"
#30000
1^"
b00000000000000000000000000000010 `"
#40000
0^"
#50000
1^"
b00000000000000000000000000000011 `"
#60000
0^"
0_"
#70000
b00000000000000000000000000100000 ]"
1^"
b00000000000000000000000000000100 `"
#80000
0^"
#90000
1^"
b00000000000000000000000000000101 `"
#100000
0^"
#110000
1^"
b00000000000000000000000000000110 `"
#120000
0^"
#130000
1^"
b00000000000000000000000000000111 `"
#140000
0^"
#150000
1^"
b00000000000000000000000000001000 `"
#160000
0^"
#170000
1^"
b00000000000000000000000000001001 `"
